^D:\GIT\CPP\TEST\TEST\DEBUG\CONVERSION.OBJ|D:\GIT\CPP\TEST\TEST\DEBUG\FRED.OBJ|D:\GIT\CPP\TEST\TEST\DEBUG\MAIN.OBJ|D:\GIT\CPP\TEST\TEST\DEBUG\MYPOD.OBJ|D:\GIT\CPP\TEST\TEST\DEBUG\MYPOINT.OBJ|D:\GIT\CPP\TEST\TEST\DEBUG\TEST.EXE.EMBED.MANIFEST.RES
D:\GIT\CPP\TEST\DEBUG\TEST.ILK
D:\GIT\CPP\TEST\DEBUG\TEST.EXE
D:\GIT\CPP\TEST\TEST\DEBUG\TEST.EXE.INTERMEDIATE.MANIFEST
D:\GIT\CPP\TEST\DEBUG\TEST.PDB
